…
## See spec(...) for full column specifications.

## Warning in (function (x, na.rm = FALSE) : NAs introduced by coercion

## # A tibble: 149 x 20
##    country region ladder_score std_error_ladde… upperwhisker lowerwhisker
##    <chr>   <chr>         <dbl> <chr>                   <dbl>        <dbl>
##  1 Finland Weste…         7.84 0,032                    7904         7780
##  2 Denmark Weste…         7.62 0,035                    7687         7552
##  3 Switze… Weste…         7.57 0,036                    7643         7500
##  4 Iceland Weste…         7.55 0,059                    7670         7438
##  5 Nether… Weste…         7.46 0,027                    7518         7410
##  6 Norway  Weste…         7.39 0,035                    7462         7323
##  7 Sweden  Weste…         7.36 0,036                    7433         7293
##  8 Luxemb… Weste…         7.32 0,037                    7396         7252
##  9 New Ze… North…         7.28 0,040                    7355         7198
## 10 Austria Weste…         7.27 0,036                    7337         7198
## # … with 139 more rows, and 14 more variables: log_gdp_pc <dbl>,
## #   social_support <dbl>, healthy_life_expectancy <dbl>,
## #   freedom_of_choice <dbl>, generosity <dbl>, perceptions_corruption <dbl>,
## #   ladder_dystopia <dbl>, explained_log_gdp_pc <chr>,
## #   explained_social_support <chr>, explained_life_expectancy <chr>,
## #   explained_freedom_choices <chr>, explained_generosity <chr>,
## #   explained_corruption <chr>, dystopia_residual <chr>
…
